Gapfilling of hourly PM2.5 data for all countries
…
tic()
aq = open_dataset("AQ_data/02_hourly_SSR") |> 
  filter(!is.na(PM10), !is.na(PM2.5), PM2.5 > 0, PM10 > 0) |> 
  collect()
pm2.5_99.9 = quantile(aq$PM2.5, 0.999)
pm10_99.9 = quantile(aq$PM10, 0.999)
aq = filter(aq, PM2.5 <= pm2.5_99.9, PM10 <= pm10_99.9)
toc()

9.993 sec elapsed

aq

# A tibble: 41,801,144 × 13
   AirQualityStationEoICode StationArea StationType Longitude Latitude
   <fct>                    <fct>       <fct>           <dbl>    <dbl>
 1 AD0942A                  urban       background       1.54     42.5
 2 AD0942A                  urban       background       1.54     42.5
 3 AD0942A                  urban       background       1.54     42.5
 4 AD0942A                  urban       background       1.54     42.5
 5 AD0942A                  urban       background       1.54     42.5
 6 AD0942A                  urban       background       1.54     42.5
 7 AD0942A                  urban       background       1.54     42.5
 8 AD0942A                  urban       background       1.54     42.5
 9 AD0942A                  urban       background       1.54     42.5
10 AD0942A                  urban       background       1.54     42.5
# ℹ 41,801,134 more rows
# ℹ 8 more variables: DatetimeBegin <dttm>, NO2 <dbl>, O3 <dbl>, PM2.5 <dbl>,
#   PM10 <dbl>, Countrycode <fct>, SSR <dbl>, points <int>
…
