…
    10.309 sec elapsed

``` r
aq
```

    # A tibble: 41,801,144 × 13
       AirQualityStationEoICode StationArea StationType Longitude Latitude
       <fct>                    <fct>       <fct>           <dbl>    <dbl>
     1 AD0942A                  urban       background       1.54     42.5
     2 AD0942A                  urban       background       1.54     42.5
     3 AD0942A                  urban       background       1.54     42.5
     4 AD0942A                  urban       background       1.54     42.5
     5 AD0942A                  urban       background       1.54     42.5
     6 AD0942A                  urban       background       1.54     42.5
     7 AD0942A                  urban       background       1.54     42.5
     8 AD0942A                  urban       background       1.54     42.5
     9 AD0942A                  urban       background       1.54     42.5
    10 AD0942A                  urban       background       1.54     42.5
    # ℹ 41,801,134 more rows
    # ℹ 8 more variables: DatetimeBegin <dttm>, NO2 <dbl>, O3 <dbl>, PM2.5 <dbl>,
    #   PM10 <dbl>, Countrycode <fct>, SSR <dbl>, points <int>
…
